{
	"base_file": "src/pmui.spec.js",
	"destination": "spec",
	"name": "pmui.spec.js",
	"pattern": "//**CODE**//",
	"files": [
		"src/spec/Form.spec.js",
		"src/spec/arraylist.spec.js",
		"src/spec/base.spec.js",
		"src/spec/button.spec.js",
		"src/spec/container.spec.js",
		"src/spec/control.spec.js",
		"src/spec/textAreaControl.spec.js",
		"src/spec/selectableControl.spec.js",
		"src/spec/dataField.spec.js",
		"src/spec/dataItem.spec.js",
		"src/spec/dataSet.spec.js",
		"src/spec/element.spec.js",
		"src/spec/factory.spec.js",
		"src/spec/field.spec.js",
		"src/spec/textAreaField.spec.js",
		"src/spec/radioButtonGroupField.spec.js",
		"src/spec/checkBoxGroupField.spec.js",
		"src/spec/formPanel.spec.js",
		"src/spec/htmlcontrol.spec.js",
		"src/spec/hiddenControl.spec.js",
		"src/spec/layout.spec.js",
		"src/spec/layoutPanel.spec.js",
		"src/spec/tabPanel.spec.js",
		"src/spec/panel.spec.js",
		"src/spec/regExpValidator.spec.js",
		"src/spec/textControl.spec.js",
		"src/spec/dateTimeControl.spec.js",
		"src/spec/textField.spec.js",
		"src/spec/dateTimeField.spec.js",
		"src/spec/textLengthValidator.spec.js",
		"src/spec/tooltipMessage.spec.js",
		"src/spec/treeNode.spec.js",
		//"src/spec/switchButtonItem.spec.js",
		"src/spec/treePanel.spec.js",
		"src/spec/accordionPanel.spec.js",
		"src/spec/accordionItem.spec.js",
		"src/spec/validator.spec.js",
		"src/spec/validatorFactory.spec.js",
		"src/spec/window.spec.js",
		//"src/spec/switchButton.spec.js",
		"src/spec/style.spec.js",
		"src/spec/core.spec.js",
		"src/spec/dropDownListControl.spec.js",
		"src/spec/dropDownListField.spec.js",
		"src/spec/segment.spec.js",
		"src/spec/snapper.spec.js",
		"src/spec/behavioralElement.spec.js",
		"src/spec/dataControlDragBehavior.spec.js",
		"src/spec/dataControlDropBehavior.spec.js",
		"src/spec/canvas.spec.js",
		"src/spec/port.spec.js",
		"src/spec/shape.spec.js",
		"src/spec/tabItem.spec.js",
		"src/spec/menu.spec.js",
		"src/spec/containableItem.spec.js",
		"src/spec/item.spec.js",
		"src/spec/gridPanel.spec.js",
		"src/spec/gridPanelCell.spec.js",
		"src/spec/gridPanelRow.spec.js",
		"src/spec/gridPanelColumn.spec.js",
     	"src/spec/hbox.spec.js",
     	"src/spec/optionsSelectorControl.spec.js",
     	"src/spec/optionsSelectorItemControl.spec.js",
     	"src/spec/menuItem.spec.js",
     	"src/spec/checkboxItem.spec.js",
     	"src/spec/label.spec.js",
     	"src/spec/customShape.spec.js",
     	"src/spec/regularShape.spec.js",
     	"src/spec/arc.spec.js",
     	"src/spec/oval.spec.js",
     	"src/spec/polygon.spec.js",
     	"src/spec/connection.spec.js",
     	"src/spec/layer.spec.js",
     	"src/spec/rectangle.spec.js",
		"src/spec/geometry.spec.js",
		"src/spec/manhattanConnectionRouter.spec.js",
		"src/spec/connectionDecorator.spec.js",
		"src/spec/handler.spec.js",
		"src/spec/intersection.spec.js",			
		"src/spec/multipleSelectionContainer.spec.js",
		"src/spec/resizeHandler.spec.js",
		"src/spec/segmentMoveHandler.spec.js",
		"src/spec/color.spec.js",
		"src/spec/point.spec.js",
		"src/spec/optionsSelectorField.spec.js",
		"src/spec/menuItemElement.spec.js",
		"src/spec/separatorItem.spec.js",
		"src/spec/proxy.spec.js",
		"src/spec/action.spec.js",
		"src/spec/event.spec.js",
		"src/spec/messageWindow.spec.js",
		"src/spec/errorMessageWindow.spec.js",
		"src/spec/infoMessageWindow.spec.js",
		"src/spec/successMessageWindow.spec.js",
		"src/spec/warningMessageWindow.spec.js",
		"src/spec/textlabel.spec.js",
		"src/spec/i18n.spec.js",
		"src/spec/confirmMessageWindow.spec.js",
		"src/spec/passwordControl.spec.js",
		"src/spec/passwordField.spec.js",
		"src/spec/uploadControl.spec.js",
		"src/spec/uploadField.spec.js"

	]
}